{
    "_links": {
        "self": {
            "href": "https://api.foleon.com/v2/magazine/edition?page=2&limit=20"
        },
        "first": {
            "href": "https://api.foleon.com/v2/magazine/edition?limit=20"
        },
        "last": {
            "href": "https://api.foleon.com/v2/magazine/edition?page=7&limit=20"
        },
        "prev": {
            "href": "https://api.foleon.com/v2/magazine/edition?page=1&limit=20"
        },
        "next": {
            "href": "https://api.foleon.com/v2/magazine/edition?page=3&limit=20"
        }
    },
    "_embedded": {
        "edition": [
            {
                "name": "My first Publication",
                "identifier": "testing",
                "published_on": null,
                "affected_on": "2021-02-11 12:35:21",
                "first_published_on": null,
                "status": "draft",
                "has_header": null,
                "options": {
                    "locale": "en_gb",
                    "help": null,
                    "has_cookie_check": false,
                    "cookie_check_message": {
                        "title": null,
                        "description": null
                    },
                    "has_editions_hidden": false,
                    "has_personalization": false,
                    "offline_mode": false,
                    "has_nofollow": true,
                    "has_disabled_navigation": false,
                    "has_page_menu_button": true,
                    "has_custom_url": false,
                    "has_page_numbers": true,
                    "floating_hamburger": false,
                    "authentication": null,
                    "has_favorites": false,
                    "has_search": false,
                    "has_header": false,
                    "has_cobranding": true,
                    "header_code": null,
                    "utm_code": null,
                    "share": [],
                    "anonymize_ip": true,
                    "disable_cdn": false
                },
                "level": "T2",
                "category": "branded_content",
                "is_starred": null,
                "screenshot_store": "s3:eu-west-2:screenshots-1d5fh4",
                "id": 162191,
                "created_on": "2021-02-11 12:35:04",
                "modified_on": null,
                "theme": null,
                "_embedded": {
                    "title": {
                        "id": 66679,
                        "_links": {
                            "self": {
                                "href": "https://api.foleon.com/v2/magazine/title/66679"
                            }
                        }
                    },
                    "pages": {
                        "_links": {
                            "self": {
                                "href": "https://api.foleon.com/v2/magazine/page?filter%5B0%5D%5Bfield%5D=edition&filter%5B0%5D%5Btype%5D=eq&filter%5B0%5D%5Bvalue%5D=162191"
                            }
                        }
                    },
                    "navigation": {
                        "_links": {
                            "self": {
                                "href": "https://api.foleon.com/v2/magazine/edition/navigation?filter%5B0%5D%5Bfield%5D=edition&filter%5B0%5D%5Btype%5D=eq&filter%5B0%5D%5Bvalue%5D=162191"
                            }
                        }
                    },
                    "forms": {
                        "_links": {
                            "self": {
                                "href": "https://api.foleon.com/v2/magazine/edition/form?filter%5B0%5D%5Bfield%5D=edition&filter%5B0%5D%5Btype%5D=eq&filter%5B0%5D%5Bvalue%5D=162191"
                            }
                        }
                    },
                    "overlays": {
                        "_links": {
                            "self": {
                                "href": "https://api.foleon.com/v2/magazine/edition/overlay?filter%5B0%5D%5Bfield%5D=edition&filter%5B0%5D%5Btype%5D=eq&filter%5B0%5D%5Bvalue%5D=162191"
                            }
                        }
                    },
                    "header": {
                        "id": 160748,
                        "_links": {
                            "self": {
                                "href": "https://api.foleon.com/v2/magazine/edition/header/160748"
                            }
                        }
                    },
                    "composition": {
                        "id": 107835,
                        "_links": {
                            "self": {
                                "href": "https://api.foleon.com/v2/magazine/composition/107835"
                            }
                        }
                    },
                    "items": {
                        "_links": {
                            "self": {
                                "href": "https://api.foleon.com/v2/magazine/item?filter%5B0%5D%5Bfield%5D=edition&filter%5B0%5D%5Btype%5D=eq&filter%5B0%5D%5Bvalue%5D=162191"
                            }
                        }
                    },
                    "jobs": {
                        "_links": {
                            "self": {
                                "href": "https://api.foleon.com/v2/job?filter%5B0%5D%5Bfield%5D=edition&filter%5B0%5D%5Btype%5D=eq&filter%5B0%5D%5Bvalue%5D=162191"
                            }
                        }
                    }
                },
                "_links": {
                    "self": {
                        "href": "https://api.foleon.com/v2/magazine/edition/162191"
                    }
                }
            },
            {
                "name": "White paper marketing eBook UK G (copy 1)",
                "identifier": "white-paper-marketing-ebook-uk-g",
                "published_on": null,
                "affected_on": "2020-11-04 11:38:07",
                "first_published_on": null,
                "status": "draft",
                "has_header": null,
                "options": {
                    "locale": "en_gb",
                    "help": null,
                    "has_cookie_check": false,
                    "cookie_check_message": {
                        "title": null,
                        "description": null
                    },
                    "has_editions_hidden": true,
                    "has_personalization": false,
                    "offline_mode": false,
                    "has_nofollow": true,
                    "has_disabled_navigation": false,
                    "has_page_menu_button": true,
                    "has_custom_url": false,
                    "has_page_numbers": true,
                    "floating_hamburger": false,
                    "authentication": {
                        "method": null,
                        "params": {
                            "username": "test",
                            "password": "",
                            "whitelist": []
                        }
                    },
                    "has_favorites": false,
                    "has_search": true,
                    "has_header": false,
                    "has_cobranding": true,
                    "header_code": "\n\n",
                    "utm_code": "?utm_source=ebook.foleon.com&utm_medium=guide&utm_campaign=buyerjourney2020&utm_content=ebook2",
                    "share": [
                        "twitter",
                        "facebook",
                        "linkedin",
                        "whatsapp",
                        "mail",
                        "twitter",
                        "facebook",
                        "linkedin",
                        "whatsapp",
                        "mail",
                        "twitter",
                        "facebook",
                        "linkedin",
                        "whatsapp",
                        "mail",
                        "twitter",
                        "facebook",
                        "linkedin",
                        "whatsapp",
                        "mail",
                        "twitter",
                        "facebook",
                        "linkedin",
                        "whatsapp",
                        "mail",
                        "twitter",
                        "facebook",
                        "linkedin",
                        "whatsapp",
                        "mail",
                        "twitter",
                        "facebook",
                        "linkedin",
                        "whatsapp",
                        "mail",
                        "twitter",
                        "facebook",
                        "linkedin",
                        "whatsapp",
                        "mail",
                        "twitter",
                        "facebook",
                        "linkedin",
                        "whatsapp",
                        "mail",
                        "twitter",
                        "facebook",
                        "linkedin",
                        "whatsapp",
                        "mail",
                        "twitter",
                        "facebook",
                        "linkedin",
                        "whatsapp",
                        "mail",
                        "twitter",
                        "facebook",
                        "linkedin",
                        "whatsapp",
                        "mail",
                        "twitter",
                        "facebook",
                        "linkedin",
                        "whatsapp",
                        "mail",
                        "twitter",
                        "facebook",
                        "linkedin",
                        "whatsapp",
                        "mail",
                        "twitter",
                        "facebook",
                        "linkedin",
                        "whatsapp",
                        "mail",
                        "twitter",
                        "facebook",
                        "linkedin",
                        "whatsapp",
                        "mail",
                        "twitter",
                        "facebook",
                        "linkedin",
                        "whatsapp",
                        "mail",
                        "twitter",
                        "facebook",
                        "linkedin",
                        "whatsapp",
                        "mail",
                        "twitter",
                        "facebook",
                        "linkedin",
                        "whatsapp",
                        "mail",
                        "twitter",
                        "facebook",
                        "linkedin",
                        "whatsapp",
                        "mail",
                        "twitter",
                        "facebook",
                        "linkedin",
                        "whatsapp",
                        "mail",
                        "twitter",
                        "facebook",
                        "linkedin",
                        "whatsapp",
                        "mail",
                        "twitter",
                        "facebook",
                        "linkedin",
                        "whatsapp",
                        "mail",
                        "twitter",
                        "facebook",
                        "linkedin",
                        "whatsapp",
                        "mail",
                        "twitter",
                        "facebook",
                        "linkedin",
                        "whatsapp",
                        "mail",
                        "twitter",
                        "facebook",
                        "linkedin",
                        "whatsapp",
                        "mail",
                        "twitter",
                        "facebook",
                        "linkedin",
                        "whatsapp",
                        "mail",
                        "twitter",
                        "facebook",
                        "linkedin",
                        "whatsapp",
                        "mail",
                        "twitter",
                        "facebook",
                        "linkedin",
                        "whatsapp",
                        "mail",
                        "twitter",
                        "facebook",
                        "linkedin",
                        "whatsapp",
                        "mail",
                        "twitter",
                        "facebook",
                        "linkedin",
                        "whatsapp",
                        "mail",
                        "twitter",
                        "facebook",
                        "linkedin",
                        "whatsapp",
                        "mail",
                        "twitter",
                        "facebook",
                        "linkedin",
                        "whatsapp",
                        "mail",
                        "twitter",
                        "facebook",
                        "linkedin",
                        "whatsapp",
                        "mail",
                        "twitter",
                        "facebook",
                        "linkedin",
                        "whatsapp",
                        "mail",
                        "twitter",
                        "facebook",
                        "linkedin",
                        "whatsapp",
                        "mail",
                        "twitter",
                        "facebook",
                        "linkedin",
                        "whatsapp",
                        "mail",
                        "twitter",
                        "facebook",
                        "linkedin",
                        "whatsapp",
                        "mail",
                        "twitter",
                        "facebook",
                        "linkedin",
                        "whatsapp",
                        "mail",
                        "twitter",
                        "facebook",
                        "linkedin",
                        "whatsapp",
                        "mail"
                    ],
                    "anonymize_ip": true,
                    "disable_cdn": false,
                    "social_platforms": {
                        "facebook": "https://www.facebook.com/GetFoleon/",
                        "linkedin": "https://www.linkedin.com/company/foleon/",
                        "twitter": "https://twitter.com/GetFoleon",
                        "googleplus": "",
                        "whatsapp": "",
                        "xing": "",
                        "mail": "",
                        "instagram": "https://www.instagram.com/getfoleon",
                        "pinterest": "",
                        "snapchat": "",
                        "youtube": "https://video.foleon.com",
                        "vimeo": "",
                        "globe": ""
                    },
                    "gtm_code": "<!-- Google Tag Manager -->\n<script>(function(w,d,s,l,i){w[l]=w[l]||[];w[l].push({'gtm.start':\nnew Date().getTime(),event:'gtm.js'});var f=d.getElementsByTagName(s)[0],\nj=d.createElement(s),dl=l!='dataLayer'?'&l='+l:'';j.async=true;j.src=\n'https://www.googletagmanager.com/gtm.js?id='+i+dl;f.parentNode.insertBefore(j,f);\n})(window,document,'script','dataLayer','GTM-MMW4Z2X');</script>\n<!-- End Google Tag Manager —>",
                    "lead_gen_gate": "HubSpot",
                    "lead_gen_gate_data": {
                        "hubspot_hub_id": "2793236",
                        "hubspot_form_id": "61fe3a48-3425-4840-9f24-4eaf85fda64b"
                    },
                    "lead_gen_preset_id": 3750574
                },
                "level": "T2",
                "category": "ebook",
                "is_starred": null,
                "screenshot_store": "s3:eu-west-2:screenshots-1d5fh4",
                "id": 153110,
                "created_on": "2020-11-04 11:31:34",
                "modified_on": "2020-11-04 11:38:07",
                "_embedded": {
                    "title": {
                        "id": 64673,
                        "_links": {
                            "self": {
                                "href": "https://api.foleon.com/v2/magazine/title/64673"
                            }
                        }
                    },
                    "pages": {
                        "_links": {
                            "self": {
                                "href": "https://api.foleon.com/v2/magazine/page?filter%5B0%5D%5Bfield%5D=edition&filter%5B0%5D%5Btype%5D=eq&filter%5B0%5D%5Bvalue%5D=153110"
                            }
                        }
                    },
                    "navigation": {
                        "_links": {
                            "self": {
                                "href": "https://api.foleon.com/v2/magazine/edition/navigation?filter%5B0%5D%5Bfield%5D=edition&filter%5B0%5D%5Btype%5D=eq&filter%5B0%5D%5Bvalue%5D=153110"
                            }
                        }
                    },
                    "forms": {
                        "_links": {
                            "self": {
                                "href": "https://api.foleon.com/v2/magazine/edition/form?filter%5B0%5D%5Bfield%5D=edition&filter%5B0%5D%5Btype%5D=eq&filter%5B0%5D%5Bvalue%5D=153110"
                            }
                        }
                    },
                    "overlays": {
                        "_links": {
                            "self": {
                                "href": "https://api.foleon.com/v2/magazine/edition/overlay?filter%5B0%5D%5Bfield%5D=edition&filter%5B0%5D%5Btype%5D=eq&filter%5B0%5D%5Bvalue%5D=153110"
                            }
                        }
                    },
                    "header": {
                        "id": 151667,
                        "_links": {
                            "self": {
                                "href": "https://api.foleon.com/v2/magazine/edition/header/151667"
                            }
                        }
                    },
                    "theme": {
                        "id": 2,
                        "_links": {
                            "self": {
                                "href": "https://api.foleon.com/v2/magazine/theme/2"
                            }
                        }
                    },
                    "composition": {
                        "id": 98899,
                        "_links": {
                            "self": {
                                "href": "https://api.foleon.com/v2/magazine/composition/98899"
                            }
                        }
                    },
                    "items": {
                        "_links": {
                            "self": {
                                "href": "https://api.foleon.com/v2/magazine/item?filter%5B0%5D%5Bfield%5D=edition&filter%5B0%5D%5Btype%5D=eq&filter%5B0%5D%5Bvalue%5D=153110"
                            }
                        }
                    },
                    "jobs": {
                        "_links": {
                            "self": {
                                "href": "https://api.foleon.com/v2/job?filter%5B0%5D%5Bfield%5D=edition&filter%5B0%5D%5Btype%5D=eq&filter%5B0%5D%5Bvalue%5D=153110"
                            }
                        }
                    }
                },
                "_links": {
                    "self": {
                        "href": "https://api.foleon.com/v2/magazine/edition/153110"
                    }
                }
            }
        ]
    },
    "page_count": 7,
    "page_size": 20,
    "total_items": 126,
    "page": 2,
    "count": 20,
    "total": 126
}